Dengue AI - Multivariate clustering
…
m_cluster_ids

Simple feature collection with 679 features and 5 fields
Geometry type: POINT
Dimension:     XY
Bounding box:  xmin: -72.7546 ymin: -32.2198 xmax: -34.84751 ymax: 3.117846
Geodetic CRS:  SIRGAS 2000
# A tibble: 679 × 6
   code_muni group name_muni   code_state abbrev_state                   geom
   <chr>     <chr> <chr>       <chr>      <chr>                   <POINT [°]>
 1 260005    1     Abreu E Li… 26         PE            (-35.01961 -7.879305)
 2 230020    1     Acaraú      23         CE            (-40.08916 -2.967873)
 3 150040    1     Alenquer    15         PA           (-55.03927 -0.6042975)
 4 510025    1     Alta Flore… 51         MT             (-56.3664 -10.05536)
 5 350160    1     Americana   35         SP             (-47.2891 -22.72336)
 6 330010    1     Angra Dos … 33         RJ             (-44.35303 -22.9867)
 7 520110    1     Anápolis    52         GO            (-48.97364 -16.29054)
 8 230100    1     Aquiraz     23         CE            (-38.39444 -3.976426)
 9 230110    1     Aracati     23         CE            (-37.68685 -4.680357)
10 270030    1     Arapiraca   27         AL            (-36.64175 -9.749339)
# ℹ 669 more rows
…
